…
ℹ Use `spec()` to retrieve the full column specification for this data.
ℹ Specify the column types or set `show_col_types = FALSE` to quiet this message.
Warning message:
One or more parsing issues, call `problems()` on your data frame for details, e.g.:
  dat <- vroom(...)
  problems(dat) 
> problem(sep_2022)
Error in problem(sep_2022) : could not find function "problem"
> problems(sep_2022)
# A tibble: 126 × 5
     row   col expected        actual    file 
   <int> <int> <chr>           <chr>     <chr>
 1     3    14 time in ISO8601 239:38:00 ""   
 2     5    14 time in ISO8601 119:32:00 ""   
 3     8    14 time in ISO8601 335:05:00 ""   
 4    10    14 time in ISO8601 118:52:00 ""   
 5    14    14 time in ISO8601 118:30:00 ""   
 6    19    14 time in ISO8601 238:19:00 ""   
 7    21    14 time in ISO8601 118:03:00 ""   
 8    26    14 time in ISO8601 213:51:00 ""   
 9    28    14 time in ISO8601 285:50:00 ""   
10    40    14 time in ISO8601 261:11:00 ""   
# ℹ 116 more rows
# ℹ Use `print(n = ...)` to see more rows
…
